\relax 
\providecommand\hyper@newdestlabel[2]{}
\providecommand\HyperFirstAtBeginDocument{\AtBeginDocument}
\HyperFirstAtBeginDocument{\ifx\hyper@anchor\@undefined
\global\let\oldcontentsline\contentsline
\gdef\contentsline#1#2#3#4{\oldcontentsline{#1}{#2}{#3}}
\global\let\oldnewlabel\newlabel
\gdef\newlabel#1#2{\newlabelxx{#1}#2}
\gdef\newlabelxx#1#2#3#4#5#6{\oldnewlabel{#1}{{#2}{#3}}}
\AtEndDocument{\ifx\hyper@anchor\@undefined
\let\contentsline\oldcontentsline
\let\newlabel\oldnewlabel
\fi}
\fi}
\global\let\hyper@last\relax 
\gdef\HyperFirstAtBeginDocument#1{#1}
\providecommand\HyField@AuxAddToFields[1]{}
\providecommand\HyField@AuxAddToCoFields[2]{}
\@writefile{toc}{\contentsline {section}{How to get and run this files on your own computer:}{1}{section*.1}\protected@file@percent }
\newlabel{how-to-get-and-run-this-files-on-your-own-computer}{{}{1}{How to get and run this files on your own computer:}{section*.1}{}}
\@writefile{lof}{\contentsline {figure}{\numberline {1}{\ignorespaces Some of you might be too young to get the reference}}{1}{figure.1}\protected@file@percent }
\@writefile{toc}{\contentsline {section}{Setup}{2}{section*.2}\protected@file@percent }
\newlabel{setup}{{}{2}{Setup}{section*.2}{}}
\@writefile{toc}{\contentsline {section}{Importing data}{2}{section*.3}\protected@file@percent }
\newlabel{importing-data}{{}{2}{Importing data}{section*.3}{}}
\@writefile{toc}{\contentsline {section}{Checking structure of data}{3}{section*.4}\protected@file@percent }
\newlabel{checking-structure-of-data}{{}{3}{Checking structure of data}{section*.4}{}}
\@writefile{toc}{\contentsline {section}{Standardization}{3}{section*.5}\protected@file@percent }
\newlabel{standardization}{{}{3}{Standardization}{section*.5}{}}
\@writefile{toc}{\contentsline {section}{Inspecting data integrity}{4}{section*.6}\protected@file@percent }
\newlabel{inspecting-data-integrity}{{}{4}{Inspecting data integrity}{section*.6}{}}
\@writefile{toc}{\contentsline {subsection}{Population plot}{5}{section*.7}\protected@file@percent }
\newlabel{population-plot}{{}{5}{Population plot}{section*.7}{}}
\@writefile{toc}{\contentsline {subsubsection}{Population plot of farm A}{5}{section*.8}\protected@file@percent }
\newlabel{population-plot-of-farm-a}{{}{5}{Population plot of farm A}{section*.8}{}}
\@writefile{toc}{\contentsline {subsubsection}{Population plot of farm B}{5}{section*.9}\protected@file@percent }
\newlabel{population-plot-of-farm-b}{{}{5}{Population plot of farm B}{section*.9}{}}
\@writefile{toc}{\contentsline {subsection}{Visualizing visits to the feeder}{6}{section*.10}\protected@file@percent }
\newlabel{visualizing-visits-to-the-feeder}{{}{6}{Visualizing visits to the feeder}{section*.10}{}}
\@writefile{toc}{\contentsline {subsection}{A birdseye view of all the data for a station}{8}{section*.11}\protected@file@percent }
\newlabel{a-birdseye-view-of-all-the-data-for-a-station}{{}{8}{A birdseye view of all the data for a station}{section*.11}{}}
\@writefile{toc}{\contentsline {section}{Building network visualizations and analyisis}{9}{section*.12}\protected@file@percent }
\newlabel{building-network-visualizations-and-analyisis}{{}{9}{Building network visualizations and analyisis}{section*.12}{}}
\@writefile{toc}{\contentsline {subsection}{Building the igraph objects and plotting}{9}{section*.13}\protected@file@percent }
\newlabel{building-the-igraph-objects-and-plotting}{{}{9}{Building the igraph objects and plotting}{section*.13}{}}
\@writefile{toc}{\contentsline {subsection}{Making summarizations based on the network data}{10}{section*.14}\protected@file@percent }
\newlabel{making-summarizations-based-on-the-network-data}{{}{10}{Making summarizations based on the network data}{section*.14}{}}
\gdef \@abspage@last{12}
